Statistiques - Gestion des données manquantes
…
Informations sur les individus

naniar::miss_case_summary(iris_NA)

# A tibble: 150 × 3
    case n_miss pct_miss
   <int>  <int>    <dbl>
 1     1      4       80
 2    31      3       60
 3    61      3       60
 4    91      3       60
 5   121      3       60
 6     7      2       40
 7    13      2       40
 8    19      2       40
 9    25      2       40
10    37      2       40
# ℹ 140 more rows
…
